^C:\USERS\VOLSANT\SOURCE\REPOS\HOMEWROK5\X64\DEBUG\HOMEWROK5.OBJ
C:\USERS\VOLSANT\SOURCE\REPOS\HOMEWROK5\X64\DEBUG\HOMEWROK5.EXE
C:\USERS\VOLSANT\SOURCE\REPOS\HOMEWROK5\X64\DEBUG\HOMEWROK5.ILK
C:\USERS\VOLSANT\SOURCE\REPOS\HOMEWROK5\X64\DEBUG\HOMEWROK5.PDB
